// Jest Snapshot v1, https://goo.gl/fbAQLP

exports[`Navbar renders correctly 1`] = `
<WithStyles(Paper)
  className="someClassName"
>
  <WithStyles(Select)
    onChange={[Function]}
    value="ComponentA"
  >
    <WithStyles(MenuItem)
      key="ComponentA"
      value="ComponentA"
    >
      ComponentA
    </WithStyles(MenuItem)>
  </WithStyles(Select)>
  <WithStyles(Button)
    color="primary"
    onClick={null}
    variant="raised"
  >
    Add Component
  </WithStyles(Button)>
</WithStyles(Paper)>
`;
